{
	"info": {
		"_postman_id": "742ec9e7-c0ca-42e0-80cf-983a04630c2f",
		"name": "todo-grails",
		"schema": "https://schema.getpostman.com/json/collection/v2.1.0/collection.json"
	},
	"item": [
		{
			"name": "Добавление задачи",
			"request": {
				"method": "POST",
				"header": [],
				"body": {
					"mode": "formdata",
					"formdata": [
						{
							"key": "name",
							"value": "Go to the cinema",
							"type": "text"
						},
						{
							"key": "date",
							"value": "26-02-2020",
							"type": "text"
						}
					]
				},
				"url": {
					"raw": "http://localhost:8080/grails-todo/addTask/execute",
					"protocol": "http",
					"host": [
						"localhost"
					],
					"port": "8080",
					"path": [
						"grails-todo",
						"addTask",
						"execute"
					]
				},
				"description": "Подать объект вида\n{\n\t\"name\" : \"nameOfTask\",\n\t\"date\" : \"26-02-2020\"\n}"
			},
			"response": []
		},
		{
			"name": "Посмотреть расписание заданий на определённый день",
			"request": {
				"method": "GET",
				"header": [],
				"url": {
					"raw": "http://www.localhost.com:8080/grails-todo/showDay/execute?date=26-02-2020",
					"protocol": "http",
					"host": [
						"www",
						"localhost",
						"com"
					],
					"port": "8080",
					"path": [
						"grails-todo",
						"showDay",
						"execute"
					],
					"query": [
						{
							"key": "date",
							"value": "26-02-2020"
						}
					]
				},
				"description": "Требуется параметр date\nвида dd-MM-yyyy"
			},
			"response": []
		},
		{
			"name": "Показать задачи на сегодня",
			"request": {
				"method": "GET",
				"header": [],
				"url": {
					"raw": "http://www.localhost.com:8080/grails-todo/feed/show",
					"protocol": "http",
					"host": [
						"www",
						"localhost",
						"com"
					],
					"port": "8080",
					"path": [
						"grails-todo",
						"feed",
						"show"
					]
				}
			},
			"response": []
		},
		{
			"name": "Отметить задачу \"Выполненной\"",
			"request": {
				"method": "GET",
				"header": [],
				"url": {
					"raw": "http://www.localhost.com:8080/grails-todo/completeTask/execute/{{id}}",
					"protocol": "http",
					"host": [
						"www",
						"localhost",
						"com"
					],
					"port": "8080",
					"path": [
						"grails-todo",
						"completeTask",
						"execute",
						"{{id}}"
					]
				},
				"description": "http://www.localhost.com:8080/grails-todo/completeTask/execute/{{id}}\n\nв id указать номер выполненной задачи"
			},
			"response": []
		}
	],
	"protocolProfileBehavior": {}
}